{
    "user":[
        {
            "id": "1","name": "000001","passwd": "123456"
        },
        {
            "id": "2",
            "name": "000002",
            "passwd": "123456"
        },
        {
            "id": "3",
            "name": "000003",
            "passwd": "123456"
        },
        {
            "id": "4",
            "name": "000004",
            "passwd": "123456"
        },
        {
            "id": "5",
            "name": "000005",
            "passwd": "123456"
        },
        {
            "id": "6",
            "name": "000006",
            "passwd": "123456"
        }
    ],
    "room": [
        {
            "roomId": "1",
            "bedNumber": "1",
            "price": "200",
            "level": "1"
        },
        {
            "roomId": "2",
            "bedNumber": "2",
            "price": "200",
            "level": "1"
        },
        {
            "roomId": "3",
            "bedNumber": "3",
            "price": "100",
            "level": "2"
        },
        {
            "roomId": "4",
            "bedNumber": "4",
            "price": "500",
            "level": "3"
        },
        {
            "roomId": "5",
            "bedNumber": "2",
            "price": "500",
            "level": "2"
        },
        {
            "roomId": "6",
            "bedNumber": "2",
            "price": "500",
            "level": "3"
        },
        {
            "roomId": "7",
            "bedNumber": "5",
            "price": "400",
            "level": "3"
        },
        {
            "roomId": "8",
            "bedNumber": "4",
            "price": "500",
            "level": "2"
        }
    ],
    "guest":[
        {

        }
    ]
}